…
    ## # A tibble: 2 × 5
    ##   term           estimate std.error statistic   p.value
    ##   <chr>             <dbl>     <dbl>     <dbl>     <dbl>
    ## 1 (Intercept) 2017.       0.00921   219087.   0        
    ## 2 no_of_units   -0.000247 0.0000613     -4.03 0.0000574

``` r
augment(apt_units)
```

    ## # A tibble: 3,366 × 9
    ##    .rownames year_regi…¹ no_of…² .fitted   .resid    .hat .sigma .cooksd .std.…³
    ##    <chr>           <dbl>   <dbl>   <dbl>    <dbl>   <dbl>  <dbl>   <dbl>   <dbl>
    ##  1 1                2017     218   2017. -0.0917  6.32e-4  0.420 1.51e-5 -0.219 
    ##  2 2                2017     206   2017. -0.0947  5.71e-4  0.420 1.45e-5 -0.226 
    ##  3 3                2017      34   2017. -0.137   3.71e-4  0.420 1.98e-5 -0.327 
    ##  4 4                2017      42   2017. -0.135   3.52e-4  0.420 1.83e-5 -0.322 
    ##  5 5                2017      25   2017. -0.139   3.95e-4  0.420 2.18e-5 -0.332 
    ##  6 7                2017      14   2017. -0.142   4.29e-4  0.420 2.46e-5 -0.339 
    ##  7 8                2017     105   2017. -0.120   3.00e-4  0.420 1.22e-5 -0.285 
    ##  8 9                2017     571   2017. -0.00453 5.17e-3  0.420 3.04e-7 -0.0108
    ##  9 10               2017     171   2017. -0.103   4.28e-4  0.420 1.30e-5 -0.246 
    ## 10 11               2018      26   2017.  0.861   3.92e-4  0.420 8.24e-4  2.05  
    ## # … with 3,356 more rows, and abbreviated variable names ¹​year_registered,
    ## #   ²​no_of_units, ³​.std.resid
…
<!-------------------------- Start your work below ---------------------------->

``` r
apt_storeys<-apt_buildings %>% select(id,no_of_storeys)
apt_storeys$storey_variable <- cut(apt_storeys$no_of_storeys,
                      breaks=c(-Inf,4, 7, Inf),
                       labels=c('Low', 'Medium', 'high'))
apt_storeys
```

    ## # A tibble: 3,455 × 3
    ##       id no_of_storeys storey_variable
    ##    <dbl>         <dbl> <fct>          
    ##  1 10359            17 high           
    ##  2 10360            14 high           
    ##  3 10361             4 Low            
    ##  4 10362             5 Medium         
    ##  5 10363             4 Low            
    ##  6 10364             4 Low            
    ##  7 10365             4 Low            
    ##  8 10366             7 Medium         
    ##  9 10367            32 high           
    ## 10 10368             4 Low            
    ## # … with 3,445 more rows
…
